<svg width="9" height="8" viewBox="0 0 9 8" fill="none" xmlns="http://www.w3.org/2000/svg">
<path d="M4.14645 7.35355C4.34171 7.54882 4.65829 7.54882 4.85355 7.35355L8.03553 4.17157C8.2308 3.97631 8.2308 3.65973 8.03553 3.46447C7.84027 3.2692 7.52369 3.2692 7.32843 3.46447L4.5 6.29289L1.67157 3.46447C1.47631 3.2692 1.15973 3.2692 0.964466 3.46447C0.769204 3.65973 0.769204 3.97631 0.964466 4.17157L4.14645 7.35355ZM4 -2.18557e-08L4 7L5 7L5 2.18557e-08L4 -2.18557e-08Z" fill="white"/>
</svg>
