<svg width="28" height="25" viewBox="0 0 28 25" fill="none" xmlns="http://www.w3.org/2000/svg">
<path d="M20.5525 7.96228L12.0829 16.3988C11.2436 17.2386 9.87014 17.2386 8.99266 16.3988C8.15334 15.559 8.15334 14.1847 8.99266 13.3067L19.5987 2.73241C21.2773 1.05274 24.0624 1.05274 25.741 2.73241C27.4197 4.41208 27.4197 7.1988 25.741 8.87847L12.0448 22.583C9.52678 25.1025 5.40646 25.1025 2.88848 22.583C0.370506 20.0635 0.370506 15.9407 2.88848 13.4212L14.4483 1.8544" stroke="#045DA0" stroke-miterlimit="10" stroke-linecap="round" stroke-linejoin="round"/>
</svg>
