<svg width="21" height="20" viewBox="0 0 21 20" fill="none" xmlns="http://www.w3.org/2000/svg">
<path d="M20.0014 14.92V17.92C20.0025 18.1985 19.9455 18.4741 19.8339 18.7293C19.7223 18.9845 19.5587 19.2136 19.3535 19.4018C19.1483 19.5901 18.906 19.7335 18.6421 19.8227C18.3783 19.9119 18.0988 19.945 17.8214 19.92C14.7442 19.5856 11.7884 18.5341 9.1914 16.85C6.77523 15.3146 4.72673 13.2661 3.1914 10.85C1.50138 8.24118 0.449641 5.27097 0.121398 2.17997C0.0964085 1.90344 0.129273 1.62474 0.217898 1.3616C0.306524 1.09846 0.448969 0.856664 0.636164 0.651596C0.823359 0.446528 1.0512 0.282684 1.30519 0.170497C1.55918 0.0583095 1.83374 0.000236361 2.1114 -2.5118e-05H5.1114C5.5967 -0.00480156 6.06719 0.167053 6.43516 0.483508C6.80313 0.799962 7.04348 1.23942 7.1114 1.71997C7.23802 2.68004 7.47285 3.6227 7.8114 4.52997C7.94594 4.8879 7.97506 5.27689 7.8953 5.65086C7.81555 6.02482 7.63026 6.36809 7.3614 6.63998L6.0914 7.90997C7.51495 10.4135 9.58785 12.4864 12.0914 13.91L13.3614 12.64C13.6333 12.3711 13.9766 12.1858 14.3505 12.1061C14.7245 12.0263 15.1135 12.0554 15.4714 12.19C16.3787 12.5285 17.3213 12.7634 18.2814 12.89C18.7672 12.9585 19.2108 13.2032 19.5279 13.5775C19.8451 13.9518 20.0136 14.4296 20.0014 14.92Z" fill="white"/>
</svg>
