<svg width="17" height="16" viewBox="0 0 17 16" fill="none" xmlns="http://www.w3.org/2000/svg">
<path d="M11.5 5.9589C11.5 8.97054 9.04081 11.4178 6 11.4178C2.95919 11.4178 0.5 8.97054 0.5 5.9589C0.5 2.94727 2.95919 0.5 6 0.5C9.04081 0.5 11.5 2.94727 11.5 5.9589Z" stroke="white"/>
<line y1="-0.5" x2="8.45627" y2="-0.5" transform="matrix(0.709532 0.704673 -0.709532 0.704673 10 9.93164)" stroke="white"/>
</svg>
