<svg width="31" height="22" viewBox="0 0 31 22" fill="none" xmlns="http://www.w3.org/2000/svg">
<path opacity="0.9" d="M30.0956 3.38163C29.7421 2.05055 28.7005 1.00223 27.3781 0.646463C24.981 0 15.369 0 15.369 0C15.369 0 5.75699 0 3.35985 0.646463C2.03738 1.00228 0.99581 2.05055 0.642298 3.38163C0 5.79431 0 10.8281 0 10.8281C0 10.8281 0 15.8619 0.642298 18.2746C0.99581 19.6057 2.03738 20.6103 3.35985 20.9661C5.75699 21.6126 15.369 21.6126 15.369 21.6126C15.369 21.6126 24.9809 21.6126 27.3781 20.9661C28.7005 20.6103 29.7421 19.6057 30.0956 18.2746C30.7379 15.8619 30.7379 10.8281 30.7379 10.8281C30.7379 10.8281 30.7379 5.79431 30.0956 3.38163ZM12.2253 15.3984V6.25779L20.259 10.8282L12.2253 15.3984Z" fill="white"/>
</svg>
