<svg width="252" height="26" viewBox="0 0 252 26" fill="none" xmlns="http://www.w3.org/2000/svg">
<g clip-path="url(#clip0)">
<path d="M13.7447 25.5312V15.0459H5.0254V25.5312H0V0.468872H5.0254V10.741H13.7447V0.468872H18.7701V25.5312H13.7447Z" fill="white"/>
<path d="M39.303 25.5312V9.41969L29.2522 25.5312H24.7852V0.468872H29.8106V16.5377L39.8184 0.468872H44.2854V25.5312H39.303Z" fill="white"/>
<path d="M64.8577 25.5312V9.41969L54.8498 25.5312H50.3828V0.468872H55.4082V16.5377L65.416 0.468872H69.8831V25.5312H64.8577Z" fill="white"/>
<path d="M89.6431 25.5312V4.81641H80.9238V25.5312H75.8984V0.468872H94.6685V25.5312H89.6431Z" fill="white"/>
<path d="M105.791 4.81641V25.5312H100.766V0.468872H116.959V4.81641H105.791Z" fill="white"/>
<path d="M123.798 25.7351H125.988V0.203959H123.798V25.7351Z" fill="white"/>
<path d="M138.35 6.77703V4.26227H135.73V6.77703H135.129V1.32129H135.73V3.7508H138.35V1.32129H138.952V6.77703H138.35Z" fill="white"/>
<path d="M143.764 6.77703L143.335 5.54096H140.929L140.5 6.77703H139.855L141.874 1.32129H142.39L144.408 6.77703H143.764ZM142.132 2.13113L141.101 5.02949H143.163L142.132 2.13113Z" fill="white"/>
<path d="M146.64 5.92457C146.425 6.43604 146.124 6.77703 145.566 6.77703H145.094V6.26555H145.437C145.824 6.26555 145.996 6.09506 146.167 5.71145L146.382 5.19998L144.578 1.32129H145.222L146.726 4.56063L148.057 1.32129H148.702L146.64 5.92457Z" fill="white"/>
<path d="M152.311 6.77703V4.56063C151.968 4.64588 151.238 4.77375 150.765 4.77375C150.035 4.77375 149.305 4.43276 149.305 3.40981V1.32129H149.906V3.28194C149.906 4.09178 150.421 4.21965 150.937 4.21965C151.323 4.21965 152.011 4.09178 152.354 4.00653V1.32129H152.956V6.77703H152.311Z" fill="white"/>
<path d="M157.721 6.77703V4.26227H155.101V6.77703H154.5V1.32129H155.101V3.7508H157.721V1.32129H158.323V6.77703H157.721Z" fill="white"/>
<path d="M163.522 4.04918C163.522 5.15737 163.522 5.7541 163.007 6.26557C162.62 6.64918 162.147 6.81967 161.589 6.81967C161.031 6.81967 160.558 6.60655 160.172 6.26557C159.656 5.7541 159.656 5.15737 159.656 4.04918V3.62295C159.656 2.9836 159.699 2.30164 160.172 1.83278C160.558 1.44918 161.031 1.27869 161.589 1.27869C162.147 1.27869 162.62 1.4918 163.007 1.83278C163.479 2.30164 163.522 2.9836 163.522 3.66557V4.04918ZM162.964 3.75082C162.964 3.11147 162.921 2.55737 162.577 2.17377C162.319 1.91803 161.976 1.79016 161.632 1.79016C161.288 1.79016 160.945 1.91803 160.687 2.17377C160.301 2.55737 160.301 3.11147 160.301 3.87869V4.43278C160.301 5.02951 160.343 5.54098 160.687 5.92459C160.945 6.18033 161.288 6.30819 161.632 6.30819C161.976 6.30819 162.319 6.18033 162.577 5.92459C162.964 5.54098 162.964 4.94426 162.964 4.34754V3.75082Z" fill="white"/>
<path d="M164.723 4.30481V3.79333H166.827V4.30481H164.723Z" fill="white"/>
<path d="M171.596 6.77715V2.30174L168.804 6.77715H168.246V1.32141H168.847V5.7542L171.639 1.32141H172.198V6.77715H171.596Z" fill="white"/>
<path d="M175.503 6.81967C174.945 6.81967 174.472 6.60655 174.086 6.26557C173.57 5.7541 173.57 5.2 173.57 4.04918C173.57 2.89836 173.57 2.34426 174.086 1.83278C174.472 1.44918 174.945 1.27869 175.503 1.27869C176.491 1.27869 177.221 1.87541 177.393 2.89836H176.792C176.663 2.21639 176.19 1.79016 175.503 1.79016C175.16 1.79016 174.773 1.91803 174.558 2.17377C174.215 2.51475 174.172 2.89836 174.172 4.04918C174.172 5.2 174.215 5.5836 174.558 5.92459C174.816 6.18033 175.16 6.30819 175.503 6.30819C176.19 6.30819 176.663 5.88196 176.835 5.2H177.436C177.221 6.22295 176.448 6.81967 175.503 6.81967Z" fill="white"/>
<path d="M180.398 6.81967C179.839 6.81967 179.367 6.60655 178.98 6.26557C178.465 5.7541 178.465 5.2 178.465 4.04918C178.465 2.89836 178.465 2.34426 178.98 1.83278C179.367 1.44918 179.839 1.27869 180.398 1.27869C181.386 1.27869 182.116 1.87541 182.288 2.89836H181.686C181.557 2.21639 181.085 1.79016 180.398 1.79016C180.054 1.79016 179.667 1.91803 179.453 2.17377C179.109 2.51475 179.066 2.89836 179.066 4.04918C179.066 5.2 179.109 5.5836 179.453 5.92459C179.71 6.18033 180.054 6.30819 180.398 6.30819C181.085 6.30819 181.557 5.88196 181.729 5.2H182.331C182.159 6.22295 181.386 6.81967 180.398 6.81967Z" fill="white"/>
<path d="M186.67 6.77703V1.83276H184.781V3.70817C184.781 6.00981 184.222 6.77703 183.191 6.77703H182.934V6.26555H183.062C183.75 6.26555 184.222 5.7967 184.222 3.53768V1.32129H187.272V6.77703H186.67Z" fill="white"/>
<path d="M188.863 6.77715V1.32141H192.299V1.83289H189.465V3.75092H191.87V4.26239H189.465V6.22305H192.299V6.73453H188.863V6.77715Z" fill="white"/>
<path d="M193.414 6.26567C193.929 5.49846 194.101 4.51813 194.101 3.1542V1.32141H197.108V6.26567H197.752V8.09846H197.151V6.77715H193.457V8.09846H192.855V6.26567H193.414ZM196.506 6.26567V1.83289H194.659V3.49518C194.659 4.51813 194.488 5.45584 194.058 6.22305H196.506V6.26567Z" fill="white"/>
<path d="M202.522 4.04918C202.522 5.15737 202.522 5.7541 202.007 6.26557C201.62 6.64918 201.147 6.81967 200.589 6.81967C200.031 6.81967 199.558 6.60655 199.172 6.26557C198.656 5.7541 198.656 5.15737 198.656 4.04918V3.62295C198.656 2.9836 198.699 2.30164 199.172 1.83278C199.558 1.44918 200.031 1.27869 200.589 1.27869C201.147 1.27869 201.62 1.4918 202.007 1.83278C202.479 2.30164 202.522 2.9836 202.522 3.66557V4.04918ZM201.964 3.75082C201.964 3.11147 201.921 2.55737 201.577 2.17377C201.319 1.91803 200.976 1.79016 200.632 1.79016C200.288 1.79016 199.945 1.91803 199.687 2.17377C199.301 2.55737 199.301 3.11147 199.301 3.87869V4.43278C199.301 5.02951 199.343 5.54098 199.687 5.92459C199.945 6.18033 200.288 6.30819 200.632 6.30819C200.976 6.30819 201.319 6.18033 201.577 5.92459C201.964 5.54098 201.964 4.94426 201.964 4.34754V3.75082Z" fill="white"/>
<path d="M206.085 6.77703H203.938V1.32129H205.999C206.987 1.32129 207.631 1.91801 207.631 2.77047C207.631 3.15408 207.503 3.49506 207.245 3.7508C207.116 3.87867 207.03 3.92129 206.815 4.00653C207.073 4.1344 207.159 4.17703 207.288 4.3049C207.545 4.56063 207.717 4.90162 207.717 5.32785C207.717 6.22293 207.073 6.77703 206.085 6.77703ZM205.956 1.83276H204.539V3.70817H205.956C206.643 3.70817 207.03 3.36719 207.03 2.77047C207.03 2.17375 206.643 1.83276 205.956 1.83276ZM205.999 4.26227H204.496V6.26555H205.999C206.686 6.26555 207.116 5.88194 207.116 5.2426C207.116 4.60326 206.686 4.26227 205.999 4.26227Z" fill="white"/>
<path d="M212.315 6.77715L211.885 5.54108H209.48L209.051 6.77715H208.406L210.425 1.32141H210.94L212.959 6.77715H212.315ZM210.683 2.13125L209.652 5.02961H211.714L210.683 2.13125Z" fill="white"/>
<path d="M215.448 1.83289V6.77715H214.847V1.83289H213.258V1.32141H217.038V1.83289H215.448Z" fill="white"/>
<path d="M218.07 6.77715V1.32141H221.506V1.83289H218.672V3.75092H221.077V4.26239H218.672V6.22305H221.506V6.73453H218.07V6.77715Z" fill="white"/>
<path d="M225.756 6.77703V1.83276H223.866V3.70817C223.866 6.00981 223.308 6.77703 222.277 6.77703H222.02V6.26555H222.148C222.836 6.26555 223.308 5.7967 223.308 3.53768V1.32129H226.358V6.77703H225.756Z" fill="white"/>
<path d="M230.011 6.77715H227.949V1.32141H228.551V3.58043H230.011C231.042 3.58043 231.729 4.21977 231.729 5.2001C231.729 6.1378 231.042 6.77715 230.011 6.77715ZM229.968 4.0919H228.551V6.26567H229.968C230.698 6.26567 231.128 5.88207 231.128 5.2001C231.128 4.47551 230.698 4.0919 229.968 4.0919Z" fill="white"/>
<path d="M234.562 6.81967C234.003 6.81967 233.531 6.60655 233.144 6.26557C232.629 5.7541 232.629 5.2 232.629 4.04918C232.629 2.89836 232.629 2.34426 233.144 1.83278C233.531 1.44918 234.003 1.27869 234.562 1.27869C235.55 1.27869 236.28 1.87541 236.452 2.89836H235.85C235.721 2.21639 235.249 1.79016 234.562 1.79016C234.218 1.79016 233.832 1.91803 233.617 2.17377C233.273 2.51475 233.23 2.89836 233.23 4.04918C233.23 5.2 233.273 5.5836 233.617 5.92459C233.875 6.18033 234.218 6.30819 234.562 6.30819C235.249 6.30819 235.721 5.88196 235.893 5.2H236.495C236.28 6.22295 235.55 6.81967 234.562 6.81967Z" fill="white"/>
<path d="M237.785 6.77703V1.32129H238.386V3.92129L240.749 1.32129H241.479L239.074 3.92129L241.694 6.77703H240.921L238.386 3.92129V6.77703H237.785Z" fill="white"/>
<path d="M245.858 6.77703V2.30162L243.066 6.77703H242.508V1.32129H243.109V5.75408L245.901 1.32129H246.459V6.77703H245.858Z" fill="white"/>
<path d="M251.401 6.77705V2.30164L248.609 6.77705H248.051V1.32131H248.652V5.7541L251.444 1.32131H252.002V6.77705H251.401ZM250.027 0.980328C249.382 0.980328 248.953 0.681967 248.91 0H249.425C249.468 0.383607 249.683 0.554098 250.07 0.554098C250.456 0.554098 250.671 0.340984 250.714 0H251.229C251.1 0.681967 250.671 0.980328 250.027 0.980328Z" fill="white"/>
<path d="M138.522 15.728V11.2525L135.73 15.728H135.172V10.2722H135.773V14.705L138.565 10.2722H139.124V15.728H138.522Z" fill="white"/>
<path d="M143.889 15.728V13.2132H141.269V15.728H140.668V10.2722H141.269V12.7017H143.889V10.2722H144.491V15.728H143.889Z" fill="white"/>
<path d="M147.8 15.7705C147.242 15.7705 146.769 15.5574 146.383 15.2164C145.867 14.7049 145.867 14.1508 145.867 13C145.867 11.8492 145.867 11.2951 146.383 10.7836C146.769 10.4 147.242 10.2295 147.8 10.2295C148.788 10.2295 149.518 10.8262 149.69 11.8492H149.089C148.96 11.1672 148.487 10.741 147.8 10.741C147.456 10.741 147.07 10.8688 146.855 11.1246C146.511 11.4656 146.469 11.8492 146.469 13C146.469 14.1508 146.511 14.5344 146.855 14.8754C147.113 15.1311 147.456 15.259 147.8 15.259C148.487 15.259 148.96 14.8328 149.132 14.1508H149.733C149.518 15.1738 148.788 15.7705 147.8 15.7705Z" fill="white"/>
<path d="M152.651 10.7837V15.728H152.05V10.7837H150.461V10.2722H154.241V10.7837H152.651Z" fill="white"/>
<path d="M158.624 15.728V11.2525L155.832 15.728H155.273V10.2722H155.875V14.705L158.667 10.2722H159.225V15.728H158.624Z" fill="white"/>
<path d="M162.402 10.7837V15.728H161.8V10.7837H160.211V10.2722H163.991V10.7837H162.402Z" fill="white"/>
<path d="M166.398 14.8754C166.183 15.3868 165.882 15.7278 165.324 15.7278H164.851V15.2164H165.195C165.582 15.2164 165.753 15.0459 165.925 14.6623L166.14 14.1508L164.336 10.2721H164.98L166.484 13.5114L167.815 10.2721H168.459L166.398 14.8754Z" fill="white"/>
<path d="M170.909 10.7837V15.728H170.308V10.7837H168.719V10.2722H172.499V10.7837H170.909Z" fill="white"/>
<path d="M178.639 15.7278V10.7836H176.019V15.7278H175.418V10.2721H179.198V15.7278H178.639Z" fill="white"/>
<path d="M180.828 15.728V10.2722H184.264V10.7837H181.429V12.7017H183.835V13.2132H181.429V15.1739H184.264V15.6853H180.828V15.728Z" fill="white"/>
<path d="M187.53 13.4688H186.07V15.7278H185.469V10.2721H187.53C188.561 10.2721 189.249 10.9114 189.249 11.8918C189.249 12.8295 188.561 13.4688 187.53 13.4688ZM187.487 10.7836H186.07V12.9573H187.487C188.218 12.9573 188.647 12.5311 188.647 11.8491C188.647 11.1672 188.218 10.7836 187.487 10.7836Z" fill="white"/>
<path d="M192.085 15.7705C191.527 15.7705 191.054 15.5574 190.668 15.2164C190.152 14.7049 190.152 14.1508 190.152 13C190.152 11.8492 190.152 11.2951 190.668 10.7836C191.054 10.4 191.527 10.2295 192.085 10.2295C193.073 10.2295 193.803 10.8262 193.975 11.8492H193.374C193.245 11.1672 192.772 10.741 192.085 10.741C191.742 10.741 191.355 10.8688 191.14 11.1246C190.797 11.4656 190.754 11.8492 190.754 13C190.754 14.1508 190.797 14.5344 191.14 14.8754C191.398 15.1311 191.742 15.259 192.085 15.259C192.772 15.259 193.245 14.8328 193.417 14.1508H194.018C193.803 15.1738 193.073 15.7705 192.085 15.7705Z" fill="white"/>
<path d="M198.483 15.7278V10.7836H195.863V15.7278H195.262V10.2721H199.041V15.7278H198.483Z" fill="white"/>
<path d="M200.676 15.728V10.2722H204.112V10.7837H201.277V12.7017H203.682V13.2132H201.277V15.1739H204.112V15.6853H200.676V15.728Z" fill="white"/>
<path d="M205.355 15.7278V10.2721H205.957V12.8721L208.319 10.2721H209.049L206.644 12.8721L209.264 15.7278H208.491L205.957 12.8721V15.7278H205.355Z" fill="white"/>
<path d="M211.671 10.7837V15.728H211.07V10.7837H209.48V10.2722H213.26V10.7837H211.671Z" fill="white"/>
<path d="M217.682 15.728V11.2525L214.89 15.728H214.332V10.2722H214.933V14.705L217.725 10.2722H218.284V15.728H217.682Z" fill="white"/>
<path d="M221.98 15.728H219.832V10.2722H221.894C222.882 10.2722 223.526 10.8689 223.526 11.7214C223.526 12.105 223.397 12.446 223.139 12.7017C223.01 12.8296 222.925 12.8722 222.71 12.9575C222.968 13.0853 223.053 13.128 223.182 13.2558C223.44 13.5116 223.612 13.8525 223.612 14.2788C223.655 15.1739 223.01 15.728 221.98 15.728ZM221.894 10.7837H220.476V12.6591H221.894C222.581 12.6591 222.968 12.3181 222.968 11.7214C222.968 11.1247 222.581 10.7837 221.894 10.7837ZM221.937 13.2132H220.433V15.2165H221.937C222.624 15.2165 223.053 14.8329 223.053 14.1935C223.053 13.5542 222.624 13.2132 221.937 13.2132Z" fill="white"/>
<path d="M228.206 15.7278V13.2131H225.586V15.7278H224.984V10.2721H225.586V12.7016H228.206V10.2721H228.807V15.7278H228.206Z" fill="white"/>
<path d="M234.049 13C234.049 14.1082 234.049 14.7049 233.534 15.2164C233.147 15.6 232.675 15.7705 232.116 15.7705C231.558 15.7705 231.086 15.5574 230.699 15.2164C230.184 14.7049 230.184 14.1082 230.184 13V12.5738C230.184 11.9344 230.227 11.2524 230.699 10.7836C231.086 10.4 231.558 10.2295 232.116 10.2295C232.675 10.2295 233.147 10.4426 233.534 10.7836C234.006 11.2524 234.049 11.9344 234.049 12.6164V13ZM233.448 12.7016C233.448 12.0623 233.405 11.5082 233.061 11.1246C232.804 10.8688 232.46 10.741 232.116 10.741C231.773 10.741 231.429 10.8688 231.171 11.1246C230.785 11.5082 230.785 12.0623 230.785 12.8295V13.3836C230.785 13.9803 230.828 14.4918 231.171 14.8754C231.429 15.1311 231.773 15.259 232.116 15.259C232.46 15.259 232.804 15.1311 233.061 14.8754C233.448 14.4918 233.448 13.8951 233.448 13.2983V12.7016Z" fill="white"/>
<path d="M236.066 10.7837V15.728H235.465V10.2722H238.772V10.7837H236.066Z" fill="white"/>
<path d="M243.499 13C243.499 14.1082 243.498 14.7049 242.983 15.2164C242.597 15.6 242.124 15.7705 241.566 15.7705C241.007 15.7705 240.535 15.5574 240.148 15.2164C239.633 14.7049 239.633 14.1082 239.633 13V12.5738C239.633 11.9344 239.676 11.2524 240.148 10.7836C240.535 10.4 241.007 10.2295 241.566 10.2295C242.124 10.2295 242.597 10.4426 242.983 10.7836C243.456 11.2524 243.499 11.9344 243.499 12.6164V13ZM242.897 12.7016C242.897 12.0623 242.854 11.5082 242.511 11.1246C242.253 10.8688 241.909 10.741 241.566 10.741C241.222 10.741 240.878 10.8688 240.621 11.1246C240.234 11.5082 240.234 12.0623 240.234 12.8295V13.3836C240.234 13.9803 240.277 14.4918 240.621 14.8754C240.878 15.1311 241.222 15.259 241.566 15.259C241.909 15.259 242.253 15.1311 242.511 14.8754C242.897 14.4918 242.897 13.8951 242.897 13.2983V12.7016Z" fill="white"/>
<path d="M135.816 19.7344V24.6786H135.215V19.2229H138.522V19.7344H135.816Z" fill="white"/>
<path d="M141.616 22.4196H140.156V24.6786H139.555V19.2229H141.616C142.647 19.2229 143.335 19.8622 143.335 20.8426C143.335 21.7803 142.647 22.4196 141.616 22.4196ZM141.573 19.7344H140.156V21.9081H141.573C142.304 21.9081 142.733 21.4819 142.733 20.7999C142.733 20.118 142.304 19.7344 141.573 19.7344Z" fill="white"/>
<path d="M147.67 24.6786L147.241 23.4426H144.836L144.406 24.6786H143.762L145.78 19.2229H146.296L148.315 24.6786H147.67ZM146.038 20.0327L145.007 22.9311H147.069L146.038 20.0327Z" fill="white"/>
<path d="M149.047 24.1673C149.562 23.4001 149.734 22.4197 149.734 21.0558V19.223H152.741V24.1673H153.385V26.0001H152.783V24.6788H149.09V26.0001H148.488V24.1673H149.047ZM152.182 24.1673V19.7345H150.335V21.3968C150.335 22.4197 150.163 23.3574 149.734 24.1247H152.182V24.1673Z" fill="white"/>
<path d="M158.194 21.9508C158.194 23.059 158.194 23.6557 157.678 24.1672C157.292 24.5508 156.819 24.7213 156.261 24.7213C155.703 24.7213 155.23 24.5082 154.844 24.1672C154.328 23.6557 154.328 23.059 154.328 21.9508V21.5246C154.328 20.8852 154.371 20.2032 154.844 19.7344C155.23 19.3508 155.703 19.1803 156.261 19.1803C156.819 19.1803 157.292 19.3934 157.678 19.7344C158.151 20.2032 158.194 20.8852 158.194 21.5672V21.9508ZM157.592 21.6524C157.592 21.0131 157.55 20.459 157.206 20.0754C156.948 19.8196 156.605 19.6918 156.261 19.6918C155.917 19.6918 155.574 19.8196 155.316 20.0754C154.929 20.459 154.929 21.0131 154.929 21.7803V22.3344C154.929 22.9311 154.972 23.4426 155.316 23.8262C155.574 24.0819 155.917 24.2098 156.261 24.2098C156.605 24.2098 156.948 24.0819 157.206 23.8262C157.592 23.4426 157.592 22.8459 157.592 22.2492V21.6524Z" fill="white"/>
<path d="M161.284 24.7214C160.726 24.7214 160.254 24.5083 159.867 24.1673C159.352 23.6558 159.352 23.1017 159.352 21.9509C159.352 20.8001 159.352 20.246 159.867 19.7345C160.254 19.3509 160.726 19.1804 161.284 19.1804C162.272 19.1804 163.002 19.7771 163.174 20.8001H162.573C162.444 20.1181 161.972 19.6919 161.284 19.6919C160.941 19.6919 160.554 19.8198 160.339 20.0755C159.996 20.4165 159.953 20.8001 159.953 21.9509C159.953 23.1017 159.996 23.4853 160.339 23.8263C160.597 24.0821 160.941 24.2099 161.284 24.2099C161.972 24.2099 162.444 23.7837 162.616 23.1017H163.217C163.045 24.1247 162.272 24.7214 161.284 24.7214Z" fill="white"/>
<path d="M166.14 19.7344V24.6786H165.538V19.7344H163.949V19.2229H167.729V19.7344H166.14Z" fill="white"/>
<path d="M170.823 22.4196H169.363V24.6786H168.762V19.2229H170.823C171.854 19.2229 172.542 19.8622 172.542 20.8426C172.499 21.7803 171.811 22.4196 170.823 22.4196ZM170.738 19.7344H169.32V21.9081H170.738C171.468 21.9081 171.897 21.4819 171.897 20.7999C171.897 20.118 171.468 19.7344 170.738 19.7344Z" fill="white"/>
<path d="M177.264 21.9509C177.264 23.0591 177.264 23.6558 176.749 24.1673C176.362 24.5509 175.89 24.7214 175.331 24.7214C174.773 24.7214 174.3 24.5083 173.914 24.1673C173.398 23.6558 173.398 23.0591 173.398 21.9509V21.5247C173.398 20.8853 173.441 20.2034 173.914 19.7345C174.3 19.3509 174.773 19.1804 175.331 19.1804C175.89 19.1804 176.362 19.3935 176.749 19.7345C177.221 20.2034 177.264 20.8853 177.264 21.5673V21.9509ZM176.706 21.6526C176.706 21.0132 176.663 20.4591 176.319 20.0755C176.061 19.8198 175.718 19.6919 175.374 19.6919C175.031 19.6919 174.687 19.8198 174.429 20.0755C174.043 20.4591 174.043 21.0132 174.043 21.7804V22.3345C174.043 22.9312 174.086 23.4427 174.429 23.8263C174.687 24.0821 175.031 24.2099 175.374 24.2099C175.718 24.2099 176.061 24.0821 176.319 23.8263C176.706 23.4427 176.706 22.846 176.706 22.2493V21.6526Z" fill="white"/>
<path d="M182.034 24.6786V20.2032L179.242 24.6786H178.684V19.2229H179.285V23.6557L182.077 19.2229H182.635V24.6786H182.034Z" fill="white"/>
<path d="M185.812 19.7345V24.6788H185.21V19.7345H183.621V19.223H187.401V19.7345H185.812Z" fill="white"/>
<path d="M188.477 24.6786V19.2229H191.913V19.7344H189.078V21.6524H191.483V22.1639H189.078V24.1245H191.913V24.636H188.477V24.6786Z" fill="white"/>
<path d="M196.163 24.6788V19.7345H194.273V21.6099C194.273 23.9115 193.714 24.6788 192.683 24.6788H192.426V24.1673H192.555C193.242 24.1673 193.714 23.6984 193.714 21.4394V19.223H196.764V24.6788H196.163Z" fill="white"/>
<path d="M200.417 24.6786H198.355V19.2229H198.957V21.4819H200.417C201.448 21.4819 202.135 22.1213 202.135 23.1016C202.092 24.0393 201.448 24.6786 200.417 24.6786ZM200.374 21.9934H198.957V24.1672H200.374C201.104 24.1672 201.534 23.7836 201.534 23.1016C201.534 22.377 201.104 21.9934 200.374 21.9934Z" fill="white"/>
<path d="M204.925 24.7214C204.367 24.7214 203.894 24.5083 203.508 24.1673C202.992 23.6558 202.992 23.1017 202.992 21.9509C202.992 20.8001 202.992 20.246 203.508 19.7345C203.894 19.3509 204.367 19.1804 204.925 19.1804C205.913 19.1804 206.643 19.7771 206.815 20.8001H206.214C206.085 20.1181 205.612 19.6919 204.925 19.6919C204.581 19.6919 204.195 19.8198 203.98 20.0755C203.636 20.4165 203.594 20.8001 203.594 21.9509C203.594 23.1017 203.636 23.4853 203.98 23.8263C204.238 24.0821 204.581 24.2099 204.925 24.2099C205.612 24.2099 206.085 23.7837 206.257 23.1017H206.858C206.686 24.1247 205.913 24.7214 204.925 24.7214Z" fill="white"/>
<path d="M209.78 19.7344V24.6786H209.179V19.7344H207.59V19.2229H211.37V19.7344H209.78Z" fill="white"/>
<path d="M214.546 24.6788H212.398V19.223H214.46C215.448 19.223 216.092 19.8197 216.092 20.6722C216.092 21.0558 215.963 21.3968 215.706 21.6525C215.577 21.7804 215.491 21.823 215.276 21.9083C215.534 22.0361 215.62 22.0788 215.749 22.2066C216.006 22.4624 216.178 22.8034 216.178 23.2296C216.178 24.1247 215.577 24.6788 214.546 24.6788ZM214.417 19.7345H213V21.6099H214.417C215.104 21.6099 215.491 21.2689 215.491 20.6722C215.491 20.0755 215.104 19.7345 214.417 19.7345ZM214.503 22.164H213V24.1673H214.503C215.19 24.1673 215.62 23.7837 215.62 23.1443C215.62 22.505 215.147 22.164 214.503 22.164Z" fill="white"/>
<path d="M220.776 24.6786L220.346 23.4426H217.941L217.511 24.6786H216.867L218.886 19.2229H219.401L221.42 24.6786H220.776ZM219.144 20.0327L218.113 22.9311H220.174L219.144 20.0327Z" fill="white"/>
</g>
<defs>
<clipPath id="clip0">
<rect width="252" height="26" fill="white"/>
</clipPath>
</defs>
</svg>
